Hooked on Data - Going Off the Map: Exploring purrr’s Other Functions
…
purrr is a package for functional programming in R. If you’re familiar with it, it’s probably because of the map()* functions. And if you’ve been a little bit intimidated by them, I’m right there with you. You’ll often see purrr used with nested lists or dataframes, like in this (modified) example from one of the last lessons in Jenny Bryan’s purrr tutorial:

library(dplyr)
library(purrr)
library(gapminder)
library(tidyr)

gapminder %>%
  group_by(country) %>%
  nest() %>%  
  mutate(fit = map(data, ~ lm(lifeExp ~ year, data = .x))) %>%
  mutate(rsq = map_dbl(fit, ~ summary(.x)[["r.squared"]])) %>%
  arrange(rsq)

# A tibble: 142 × 4
# Groups:   country [142]
   country          data              fit       rsq
   <fct>            <list>            <list>  <dbl>
 1 Rwanda           <tibble [12 × 5]> <lm>   0.0172
 2 Botswana         <tibble [12 × 5]> <lm>   0.0340
 3 Zimbabwe         <tibble [12 × 5]> <lm>   0.0562
 4 Zambia           <tibble [12 × 5]> <lm>   0.0598
 5 Swaziland        <tibble [12 × 5]> <lm>   0.0682
 6 Lesotho          <tibble [12 × 5]> <lm>   0.0849
 7 Cote d'Ivoire    <tibble [12 × 5]> <lm>   0.283 
 8 South Africa     <tibble [12 × 5]> <lm>   0.312 
 9 Uganda           <tibble [12 × 5]> <lm>   0.342 
10 Congo, Dem. Rep. <tibble [12 × 5]> <lm>   0.348 
# … with 132 more rows
# ℹ Use `print(n = ...)` to see more rows
…
